Final/dump.vcd
$date
	Tue Mar 12 22:08:29 2024
$end
$version
	QuestaSim Version 2023.3
$end
$timescale
	1ns
$end

$scope module top $end
$var parameter 40 ! MEM_LSB $end
$var parameter 40 " MEM_MSB $end
$var parameter 34 # IO_LSB $end
$var parameter 34 $ IO_MSB $end
$var reg 1 % CLK $end
$var reg 1 & RESET $end
$var reg 4 ' CS [3:0] $end

$scope module P $end
$upscope $end

$scope module mem0 $end
$var parameter 20 ( MEM_LSB $end
$var parameter 20 ) MEM_MSB $end
$var parameter 32 * ACTIVE $end
$var parameter 64 + file $end
$var wire 1 , CS $end
$var reg 1 - OE $end
$var reg 1 . rw $end
$var reg 1 / ld_Addr $end
$var reg 1 0 ld_data $end
$var reg 8 1 MemData [7:0] $end
$var reg 20 2 AddrReg [19:0] $end
$var reg 8 3 DataReg [7:0] $end
$var integer 32 4 State $end
$var integer 32 5 NextState $end
$upscope $end

$scope module mem1 $end
$var parameter 20 6 MEM_LSB $end
$var parameter 20 7 MEM_MSB $end
$var parameter 32 8 ACTIVE $end
$var parameter 64 9 file $end
$var wire 1 : CS $end
$var reg 1 ; OE $end
$var reg 1 < rw $end
$var reg 1 = ld_Addr $end
$var reg 1 > ld_data $end
$var reg 8 ? MemData [7:0] $end
$var reg 20 @ AddrReg [19:0] $end
$var reg 8 A DataReg [7:0] $end
$var integer 32 B State $end
$var integer 32 C NextState $end
$upscope $end

$scope module IO0 $end
$var parameter 17 D MEM_LSB $end
$var parameter 17 E MEM_MSB $end
$var parameter 32 F ACTIVE $end
$var parameter 56 G file $end
$var wire 1 H CS $end
$var reg 1 I OE $end
$var reg 1 J rw $end
$var reg 1 K ld_Addr $end
$var reg 1 L ld_data $end
$var reg 8 M MemData [7:0] $end
$var reg 20 N AddrReg [19:0] $end
$var reg 8 O DataReg [7:0] $end
$var integer 32 P State $end
$var integer 32 Q NextState $end
$upscope $end

$scope module IO1 $end
$var parameter 17 R MEM_LSB $end
$var parameter 17 S MEM_MSB $end
$var parameter 32 T ACTIVE $end
$var parameter 56 U file $end
$var wire 1 V CS $end
$var reg 1 W OE $end
$var reg 1 X rw $end
$var reg 1 Y ld_Addr $end
$var reg 1 Z ld_data $end
$var reg 8 [ MemData [7:0] $end
$var reg 20 \ AddrReg [19:0] $end
$var reg 8 ] DataReg [7:0] $end
$var integer 32 ^ State $end
$var integer 32 _ NextState $end
$upscope $end
$upscope $end

$scope begin std $end
$upscope $end
$enddefinitions $end
#0
$dumpvars
0%
0&
bx '
0-
0.
0/
00
bx 1
bx 2
bx 3
0;
0<
0=
0>
bx ?
bx @
bx A
0I
0J
0K
0L
bx M
bx N
bx O
0W
0X
0Y
0Z
bx [
bx \
bx ]
b0 !
b1111111100000000000001111111111111111111 "
b1110000000000 #
b1100000000000000000001110111111111 $
b0 (
b1111111111111111111 )
b0 *
b10000000000000000000 6
b11111111111111111111 7
b0 8
b1110000000000 D
b1110111111111 E
b1 F
b1111111100000000 R
b1111111100001111 S
b1 T
b100110101000101010011010011000100101110011101000111100001110100 +
b100110101000101010011010011001000101110011101000111100001110100 9
b1001001010011110011001000101110011101000111100001110100 G
b1001001010011110011000100101110011101000111100001110100 U
b0 4
b0 5
b0 B
b0 C
b0 P
b0 Q
b0 ^
b0 _
xV
xH
x:
x,
$end
#50
1%
#100
0%
#150
1%
1&
#200
0%
#250
1%
#300
0%
#350
1%
#400
0%
#450
1%
#500
0%
#550
1%
#600
0%
#650
1%
0&
#700
0%
#750
1%
#800
0%
#850
1%
#900
0%
#950
1%
#1000
0%
#1050
1%
#1100
0%
#1150
1%
#1200
0%
#1250
1%
#1300
0%
#1350
1%
#1400
0%
#1450
1%
#1500
0%
#1550
1%
#1600
0%
#1650
1%
#1700
0%
#1750
1%
#1800
0%
#1850
1%
#1900
0%
#1950
1%
#2000
0%
#2050
1%
#2100
0%
#2150
1%
#2200
0%
#2250
1%
#2300
0%
#2350
1%
#2400
0%
#2450
1%
#2500
0%
#2550
1%
#2600
0%
#2650
1%
#2700
0%
#2750
1%
#2800
0%
#2850
1%
#2900
0%
#2950
1%
#3000
0%
#3050
1%
#3100
0%
#3150
1%
#3200
0%
#3250
1%
#3300
0%
#3350
1%
#3400
0%
#3450
1%
#3500
0%
#3550
1%
#3600
0%
#3650
1%
#3700
0%
#3750
1%
#3800
0%
#3850
1%
#3900
0%
#3950
1%
#4000
0%
#4050
1%
#4100
0%
#4150
1%
#4200
0%
#4250
1%
#4300
0%
#4350
1%
#4400
0%
#4450
1%
#4500
0%
#4550
1%
#4600
0%
#4650
1%
#4700
0%
#4750
1%
#4800
0%
#4850
1%
#4900
0%
#4950
1%
#5000
0%
#5050
1%
#5100
0%
#5150
1%
#5200
0%
#5250
1%
#5300
0%
#5350
1%
#5400
0%
#5450
1%
#5500
0%
#5550
1%
#5600
0%
#5650
1%
#5700
0%
#5750
1%
#5800
0%
#5850
1%
#5900
0%
#5950
1%
#6000
0%
#6050
1%
#6100
0%
#6150
1%
#6200
0%
#6250
1%
#6300
0%
#6350
1%
#6400
0%
#6450
1%
#6500
0%
#6550
1%
#6600
0%
#6650
1%
#6700
0%
#6750
1%
#6800
0%
#6850
1%
#6900
0%
#6950
1%
#7000
0%
#7050
1%
#7100
0%
#7150
1%
#7200
0%
#7250
1%
#7300
0%
#7350
1%
#7400
0%
#7450
1%
#7500
0%
#7550
1%
#7600
0%
#7650
1%
#7700
0%
#7750
1%
#7800
0%
#7850
1%
#7900
0%
#7950
1%
#8000
0%
#8050
1%
#8100
0%
#8150
1%
#8200
0%
#8250
1%
#8300
0%
#8350
1%
#8400
0%
#8450
1%
#8500
0%
#8550
1%
#8600
0%
#8650
1%
#8700
0%
#8750
1%
#8800
0%
#8850
1%
#8900
0%
#8950
1%
#9000
0%
#9050
1%
#9100
0%
#9150
1%
#9200
0%
#9250
1%
#9300
0%
#9350
1%
#9400
0%
#9450
1%
#9500
0%
#9550
1%
#9600
0%
#9650
1%
#9700
0%
#9750
1%
#9800
0%
#9850
1%
#9900
0%
#9950
1%
#10000
0%
#10050
1%
#10100
0%
#10150
1%
#10200
0%
#10250
1%
#10300
0%
#10350
1%
#10400
0%
#10450
1%
#10500
0%
#10550
1%
#10600
0%
#10650
1%
#10700
0%
bx0 '
bx10 '
bx010 '
b10 '
0,
1:
0H
0V
b1 C
#10750
1%
b0 C
b1 B
b1 C
1=
#10800
0%
b10 C
#10850
1%
b11111111111111111111 @
b10 B
b11 C
0=
1;
#10900
0%
#10950
1%
b11 B
b0 C
0;
#11000
0%
#11050
1%
b11 C
b0 C
b0 B
